3
//Index   DropRate
0         10000
1	      10000
end

4
//Index   Section   SectionRate   MoneyAmount   OptionValue   DW   DK   FE   MG   DL   SU   RF   GL   RW   SL   GC
0         5         10000         100           32            1    1    1    1    1    1    1    1    1    1    1  
1         6         10000         100           32            1    1    1    1    1    1    1	 1    1    1    1 
end

5
//Index   Level   Grade   Option0   Option1   Option2   Option3   Option4   Option5   Option6   Duration Comment 
14,505    0       0       *         *         *         *         *         *         *         0         //Ruud Box (1000)
end

6  //Chaos para Talismans
//Index   Level   Grade   Option0   Option1   Option2   Option3   Option4   Option5   Option6   Duration Comment

20,43      0       0       -1        -1        -1        -1        -1       -1        -1        0         //Blood Angel Chaos Guild Charm F"
20,44      0       0       -1        -1        -1        -1        -1       -1        -1        0         //Dark Angel Chaos Guild Charm Fr"
20,45      0       0       -1        -1        -1        -1        -1       -1        -1        0         //Holy Angel Chaos Charm Fragment"
20,46      0       0       -1        -1        -1        -1        -1       -1        -1        0         //Soul Chaos Guild Charm Fragment"
20,47      0       0       -1        -1        -1        -1        -1       -1        -1        0         //Blue Eye Chaos Guild Charm Frag"
20,48      0       0       -1        -1        -1        -1        -1       -1        -1        0         //Silver Heart Chaos Guild Charm "
20,49      0       0       -1        -1        -1        -1        -1       -1        -1        0         //Manticore Chaos Guild Charm Fra"

end