3
//Index   DropRate
0         10000
1         10000
end

4
//Index   Section   SectionRate   MoneyAmount   OptionValue   DW   DK   FE   MG   DL   SU   RF   GL   RW   SL   GC
0         5         10000         0	            0             1    0    0    0    0    0    0    0    0    0    0  
0         6         10000         0	            0             0    1    0    0    0    0    0    0    0    0    0 
0         7         10000         0	            0             0    0    1    0    0    0    0    0    0    0    0 
0         8         10000         0	            0             0    0    0    1    0    0    0    0    0    0    0 
0         9         10000         0	            0             0    0    0    0    1    0    0    0    0    0    0 
0         10        10000         0	            0             0    0    0    0    0    1    0    0    0    0    0 
0         11        10000         0	            0             0    0    0    0    0    0    1    0    0    0    0 
0         12        10000         0	            0             0    0    0    0    0    0    0    1    0    0    0 
0         13        10000         0	            0             0    0    0    0    0    0    0    0    1    0    0 
0         14        10000         0	            0             0    0    0    0    0    0    0    0    0    1    0 
0         15        10000         0	            0             0    0    0    0    0    0    0    0    0    0    1 
1         16        10000         0	            0             1    1    1    1    1    1    1    1    1    1    1 
end
5
//Index   Level   Grade   Option0   Option1   Option2   Option3   Option4   Option5   Option6   Duration   Comment
7,18      0       1       *         *         13        20        602       *         *         0          //Helm Grand Soul
8,18      0       1       *         *         13        20        602       *         *         0          //Armo Grand Soul
9,18      0       1       *         *         13        20        602       *         *         0          //Pants Grand Soul
10,18     0       1       *         *         13        20        602       *         *         0          //Gloves Grand Soul
11,18     0       1       *         *         13        20        602       *         *         0          //Boots Grand Soul
6,15      0       1       *         12        13        20        602       *         *         0          //Grand Soul Shield
5,9       0       1       *         12        13        20        602       *         *         0          //Grand Soul Staff

13,013    0       1       *         12        13        20        602       *         *         0          //Pendant of Fire
13,012    0       1       *         12        13        20        602       *         *         0          //Pendant of Lighting
13,025    0       1       *         12        13        20        602       *         *         0          //Pendant of Ice
13,026    0       1       *         12        13        20        602       *         *         0          //Pendant of Wind
13,027    0       1       *         12        13        20        602       *         *         0          //Pendant of Water
13,028    0       1       *         12        13        20        602       *         *         0          //Pendant of Ability
13,009    0       1       *         12        13        20        602       *         *         0          //Ring of Poison
13,021    0       1       *         12        13        20        602       *         *         0          //Ring of Fire
13,008    0       1       *         12        13        20        602       *         *         0          //Ring of Ice
13,022    0       1       *         12        13        20        602       *         *         0          //Ring of Earth
13,023    0       1       *         12        13        20        602       *         *         0          //Ring of Wind
13,024    0       1       *         12        13        20        602       *         *         0          //Ring of Magic
7182      *       0       11        *         *         *         *         *         *         0          //Jewel of Soul
7184      *       0       11        *         *         *         *         *         *         0          //Jewel of Life
14,13     *       0       11        *         *         *         *         *         *         0          //Jewel of Bless
12,15     *       0       11        *         *         *         *         *         *         0          //Jewel of chaos
7190      *       0       11        *         *         *         *         *         *         0          //Jewel of Creation
7199      *       0       11        *         *         *         *         *         *         0          //Guardian Jewel
7210      *       0       11        *         *         *         *         *         *         0          //Jewel of Harmony
14,019    0       0       33        *         *         *         *         *         *         0          //Devil's Invitation [Level: +3~5]
13,018    0       0       35        *         *         *         *         *         *         0          //Invisibility Cloak [Level: +4~6]
14,028    0       0       33        *         *         *         *         *         *         0          //Lost Map [Level: +1~3]
end

6
//Index   Level   Grade   Option0   Option1   Option2   Option3   Option4   Option5   Option6   Duration   Comment
7,17      0       1       *         *         13        20        602       *         *         0          //Helm Dark Phoenix
8,17      0       1       *         *         13        20        602       *         *         0          //Armo Dark Phoenix
9,17      0       1       *         *         13        20        602       *         *         0          //Pants Dark Phoenix
10,17     0       1       *         *         13        20        602       *         *         0          //Gloves Dark Phoenix
11,17     0       1       *         *         13        20        602       *         *         0          //Boots Dark Phoenix
0,16      0       1       *         12        13        20        602       *         *         0          //Sword Destruction
0,17      0       1       *         12        13        20        602       *         *         0          //Sword Dark Breaker
6,13      0       1       *         12        13        20        602       *         *         0          //Dragon Shield

13,013    0       1       *         12        13        20        602       *         *         0          //Pendant of Fire
13,012    0       1       *         12        13        20        602       *         *         0          //Pendant of Lighting
13,025    0       1       *         12        13        20        602       *         *         0          //Pendant of Ice
13,026    0       1       *         12        13        20        602       *         *         0          //Pendant of Wind
13,027    0       1       *         12        13        20        602       *         *         0          //Pendant of Water
13,028    0       1       *         12        13        20        602       *         *         0          //Pendant of Ability
13,009    0       1       *         12        13        20        602       *         *         0          //Ring of Poison
13,021    0       1       *         12        13        20        602       *         *         0          //Ring of Fire
13,008    0       1       *         12        13        20        602       *         *         0          //Ring of Ice
13,022    0       1       *         12        13        20        602       *         *         0          //Ring of Earth
13,023    0       1       *         12        13        20        602       *         *         0          //Ring of Wind
13,024    0       1       *         12        13        20        602       *         *         0          //Ring of Magic
7182      *       0       11        *         *         *         *         *         *         0          //Jewel of Soul
7184      *       0       11        *         *         *         *         *         *         0          //Jewel of Life
14,13     *       0       11        *         *         *         *         *         *         0          //Jewel of Bless
12,15     *       0       11        *         *         *         *         *         *         0          //Jewel of chaos
7190      *       0       11        *         *         *         *         *         *         0          //Jewel of Creation
7199      *       0       11        *         *         *         *         *         *         0          //Guardian Jewel
7210      *       0       11        *         *         *         *         *         *         0          //Jewel of Harmony
14,019    0       0       33        *         *         *         *         *         *         0          //Devil's Invitation [Level: +3~5]
13,018    0       0       35        *         *         *         *         *         *         0          //Invisibility Cloak [Level: +4~6]
14,028    0       0       33        *         *         *         *         *         *         0          //Lost Map [Level: +1~3]
end

7
//Index   Level   Grade   Option0   Option1   Option2   Option3   Option4   Option5   Option6   Duration   Comment
7,19      0       1       *         *         13        20        602       *         *         0          	//Helm Holy Spirit
8,19      0       1       *         *         13        20        602       *         *         0          	//Armo Holy Spirit
9,19      0       1       *         *         13        20        602       *         *         0          	//Pants Holy Spirit
10,19     0       1       *         *         13        20        602       *         *         0          	//Gloves Holy Spirit
11,19     0       1       *         *         13        20        602       *         *         0          	//Boots Holy Spirit
4,17      0       1       *         12        13        20        602       *         *         0           //Celestial Bow
6,16      0       1       *         12        13        20        602       *         *         0           //Elemental Shield

13,013    0       1       *         12        13        20        602       *         *         0          //Pendant of Fire
13,012    0       1       *         12        13        20        602       *         *         0          //Pendant of Lighting
13,025    0       1       *         12        13        20        602       *         *         0          //Pendant of Ice
13,026    0       1       *         12        13        20        602       *         *         0          //Pendant of Wind
13,027    0       1       *         12        13        20        602       *         *         0          //Pendant of Water
13,028    0       1       *         12        13        20        602       *         *         0          //Pendant of Ability
13,009    0       1       *         12        13        20        602       *         *         0          //Ring of Poison
13,021    0       1       *         12        13        20        602       *         *         0          //Ring of Fire
13,008    0       1       *         12        13        20        602       *         *         0          //Ring of Ice
13,022    0       1       *         12        13        20        602       *         *         0          //Ring of Earth
13,023    0       1       *         12        13        20        602       *         *         0          //Ring of Wind
13,024    0       1       *         12        13        20        602       *         *         0          //Ring of Magic
7182      *       0       11        *         *         *         *         *         *         0          //Jewel of Soul
7184      *       0       11        *         *         *         *         *         *         0          //Jewel of Life
14,13     *       0       11        *         *         *         *         *         *         0          //Jewel of Bless
12,15     *       0       11        *         *         *         *         *         *         0          //Jewel of chaos
7190      *       0       11        *         *         *         *         *         *         0          //Jewel of Creation
7199      *       0       11        *         *         *         *         *         *         0          //Guardian Jewel
7210      *       0       11        *         *         *         *         *         *         0          //Jewel of Harmony
14,019    0       0       33        *         *         *         *         *         *         0          //Devil's Invitation [Level: +3~5]
13,018    0       0       35        *         *         *         *         *         *         0          //Invisibility Cloak [Level: +4~6]
14,028    0       0       33        *         *         *         *         *         *         0          //Lost Map [Level: +1~3]
end

8
//Index   Level   Grade   Option0   Option1   Option2   Option3   Option4   Option5   Option6   Duration   Comment
8,20      0       1       *         *         13        20        602       *         *         0          	//Armo Thunder Hawk
9,20      0       1       *         *         13        20        602       *         *         0          	//Pants Thunder Hawk
10,20     0       1       *         *         13        20        602       *         *         0          	//Gloves Thunder Hawk
11,20     0       1       *         *         13        20        602       *         *         0          	//Boots Thunder Hawk
0,18      0       1       *         12        13        20        602       *         *         0           //Thunder Blade

13,013    0       1       *         12        13        20        602       *         *         0          //Pendant of Fire
13,012    0       1       *         12        13        20        602       *         *         0          //Pendant of Lighting
13,025    0       1       *         12        13        20        602       *         *         0          //Pendant of Ice
13,026    0       1       *         12        13        20        602       *         *         0          //Pendant of Wind
13,027    0       1       *         12        13        20        602       *         *         0          //Pendant of Water
13,028    0       1       *         12        13        20        602       *         *         0          //Pendant of Ability
13,009    0       1       *         12        13        20        602       *         *         0          //Ring of Poison
13,021    0       1       *         12        13        20        602       *         *         0          //Ring of Fire
13,008    0       1       *         12        13        20        602       *         *         0          //Ring of Ice
13,022    0       1       *         12        13        20        602       *         *         0          //Ring of Earth
13,023    0       1       *         12        13        20        602       *         *         0          //Ring of Wind
13,024    0       1       *         12        13        20        602       *         *         0          //Ring of Magic
7182      *       0       11        *         *         *         *         *         *         0          //Jewel of Soul
7184      *       0       11        *         *         *         *         *         *         0          //Jewel of Life
14,13     *       0       11        *         *         *         *         *         *         0          //Jewel of Bless
12,15     *       0       11        *         *         *         *         *         *         0          //Jewel of chaos
7190      *       0       11        *         *         *         *         *         *         0          //Jewel of Creation
7199      *       0       11        *         *         *         *         *         *         0          //Guardian Jewel
7210      *       0       11        *         *         *         *         *         *         0          //Jewel of Harmony
14,019    0       0       33        *         *         *         *         *         *         0          //Devil's Invitation [Level: +3~5]
13,018    0       0       35        *         *         *         *         *         *         0          //Invisibility Cloak [Level: +4~6]
14,028    0       0       33        *         *         *         *         *         *         0          //Lost Map [Level: +1~3]
end

9
//Index   Level   Grade   Option0   Option1   Option2   Option3   Option4   Option5   Option6   Duration   Comment
7,27      0       1       *         *         13        20        602       *         *         0          	//Helm Dark Steel
8,27      0       1       *         *         13        20        602       *         *         0          	//Armo Dark Steel
9,27      0       1       *         *         13        20        602       *         *         0          	//Pants Dark Steel
10,27     0       1       *         *         13        20        602       *         *         0          	//Gloves Dark Steel
11,27     0       1       *         *         13        20        602       *         *         0          	//Boots Dark Steel
2,15      0       1       *         12        13        20        602       *         *         0           //Shining Scepter

13,013    0       1       *         12        13        20        602       *         *         0          //Pendant of Fire
13,012    0       1       *         12        13        20        602       *         *         0          //Pendant of Lighting
13,025    0       1       *         12        13        20        602       *         *         0          //Pendant of Ice
13,026    0       1       *         12        13        20        602       *         *         0          //Pendant of Wind
13,027    0       1       *         12        13        20        602       *         *         0          //Pendant of Water
13,028    0       1       *         12        13        20        602       *         *         0          //Pendant of Ability
13,009    0       1       *         12        13        20        602       *         *         0          //Ring of Poison
13,021    0       1       *         12        13        20        602       *         *         0          //Ring of Fire
13,008    0       1       *         12        13        20        602       *         *         0          //Ring of Ice
13,022    0       1       *         12        13        20        602       *         *         0          //Ring of Earth
13,023    0       1       *         12        13        20        602       *         *         0          //Ring of Wind
13,024    0       1       *         12        13        20        602       *         *         0          //Ring of Magic
7182      *       0       11        *         *         *         *         *         *         0          //Jewel of Soul
7184      *       0       11        *         *         *         *         *         *         0          //Jewel of Life
14,13     *       0       11        *         *         *         *         *         *         0          //Jewel of Bless
12,15     *       0       11        *         *         *         *         *         *         0          //Jewel of chaos
7190      *       0       11        *         *         *         *         *         *         0          //Jewel of Creation
7199      *       0       11        *         *         *         *         *         *         0          //Guardian Jewel
7210      *       0       11        *         *         *         *         *         *         0          //Jewel of Harmony
14,019    0       0       33        *         *         *         *         *         *         0          //Devil's Invitation [Level: +3~5]
13,018    0       0       35        *         *         *         *         *         *         0          //Invisibility Cloak [Level: +4~6]
14,028    0       0       33        *         *         *         *         *         *         0          //Lost Map [Level: +1~3]
end

10
//Index   Level   Grade   Option0   Option1   Option2   Option3   Option4   Option5   Option6   Duration   Comment
7,42      0       1       *         *         13        20        602       *         *         0          	//Helm Demoniac SUM
8,42      0       1       *         *         13        20        602       *         *         0          	//Armo Demoniac SUM
9,42      0       1       *         *         13        20        602       *         *         0          	//Pants Demoniac SUM
10,42     0       1       *         *         13        20        602       *         *         0          	//Gloves Demoniac SUM
11,42     0       1       *         *         13        20        602       *         *         0          	//Boots Demoniac SUM
5,22      0       1       *         12        13        20        602       *         *         0           //Book of Neil
2579      0       1       *         12        13        20        602       *         *         0           //Storm Blitz Stick

13,013    0       1       *         12        13        20        602       *         *         0          //Pendant of Fire
13,012    0       1       *         12        13        20        602       *         *         0          //Pendant of Lighting
13,025    0       1       *         12        13        20        602       *         *         0          //Pendant of Ice
13,026    0       1       *         12        13        20        602       *         *         0          //Pendant of Wind
13,027    0       1       *         12        13        20        602       *         *         0          //Pendant of Water
13,028    0       1       *         12        13        20        602       *         *         0          //Pendant of Ability
13,009    0       1       *         12        13        20        602       *         *         0          //Ring of Poison
13,021    0       1       *         12        13        20        602       *         *         0          //Ring of Fire
13,008    0       1       *         12        13        20        602       *         *         0          //Ring of Ice
13,022    0       1       *         12        13        20        602       *         *         0          //Ring of Earth
13,023    0       1       *         12        13        20        602       *         *         0          //Ring of Wind
13,024    0       1       *         12        13        20        602       *         *         0          //Ring of Magic
7182      *       0       11        *         *         *         *         *         *         0          //Jewel of Soul
7184      *       0       11        *         *         *         *         *         *         0          //Jewel of Life
14,13     *       0       11        *         *         *         *         *         *         0          //Jewel of Bless
12,15     *       0       11        *         *         *         *         *         *         0          //Jewel of chaos
7190      *       0       11        *         *         *         *         *         *         0          //Jewel of Creation
7199      *       0       11        *         *         *         *         *         *         0          //Guardian Jewel
7210      *       0       11        *         *         *         *         *         *         0          //Jewel of Harmony
14,019    0       0       33        *         *         *         *         *         *         0          //Devil's Invitation [Level: +3~5]
13,018    0       0       35        *         *         *         *         *         *         0          //Invisibility Cloak [Level: +4~6]
14,028    0       0       33        *         *         *         *         *         *         0          //Lost Map [Level: +1~3]
end

11
//Index   Level   Grade   Option0   Option1   Option2   Option3   Option4   Option5   Option6   Duration   Comment
7,59      0       1       *         *         13        20        602       *         *         0          	//Helm Sacred fire
8,59      0       1       *         *         13        20        602       *         *         0          	//Armo Sacred fire
9,59      0       1       *         *         13        20        602       *         *         0          	//Pants Sacred fire
11,59     0       1       *         *         13        20        602       *         *         0          	//Boots Sacred fire
0,32      0       1       *         12        13        20        602       *         *         0           //Sacred Gloves

13,013    0       1       *         12        13        20        602       *         *         0          //Pendant of Fire
13,012    0       1       *         12        13        20        602       *         *         0          //Pendant of Lighting
13,025    0       1       *         12        13        20        602       *         *         0          //Pendant of Ice
13,026    0       1       *         12        13        20        602       *         *         0          //Pendant of Wind
13,027    0       1       *         12        13        20        602       *         *         0          //Pendant of Water
13,028    0       1       *         12        13        20        602       *         *         0          //Pendant of Ability
13,009    0       1       *         12        13        20        602       *         *         0          //Ring of Poison
13,021    0       1       *         12        13        20        602       *         *         0          //Ring of Fire
13,008    0       1       *         12        13        20        602       *         *         0          //Ring of Ice
13,022    0       1       *         12        13        20        602       *         *         0          //Ring of Earth
13,023    0       1       *         12        13        20        602       *         *         0          //Ring of Wind
13,024    0       1       *         12        13        20        602       *         *         0          //Ring of Magic
7182      *       0       11        *         *         *         *         *         *         0          //Jewel of Soul
7184      *       0       11        *         *         *         *         *         *         0          //Jewel of Life
14,13     *       0       11        *         *         *         *         *         *         0          //Jewel of Bless
12,15     *       0       11        *         *         *         *         *         *         0          //Jewel of chaos
7190      *       0       11        *         *         *         *         *         *         0          //Jewel of Creation
7199      *       0       11        *         *         *         *         *         *         0          //Guardian Jewel
7210      *       0       11        *         *         *         *         *         *         0          //Jewel of Harmony
14,019    0       0       33        *         *         *         *         *         *         0          //Devil's Invitation [Level: +3~5]
13,018    0       0       35        *         *         *         *         *         *         0          //Invisibility Cloak [Level: +4~6]
14,028    0       0       33        *         *         *         *         *         *         0          //Lost Map [Level: +1~3]
end

12
//Index   Level   Grade   Option0   Option1   Option2   Option3   Option4   Option5   Option6   Duration   Comment
//Set Hirat GL
3678      0       1       *         *         13        20        602       *         *         0          	//
4190      0       1       *         *         13        20        602       *         *         0          	// 
4702      0       1       *         *         13        20        602       *         *         0          	// 
5214      0       1       *         *         13        20        602       *         *         0          	// 
5726      0       1       *         *         13        20        602       *         *         0          	// 
1552      0       1       *         12        13        20        602       *         *         0           //Vis lancer

13,013    0       1       *         12        13        20        602       *         *         0          //Pendant of Fire
13,012    0       1       *         12        13        20        602       *         *         0          //Pendant of Lighting
13,025    0       1       *         12        13        20        602       *         *         0          //Pendant of Ice
13,026    0       1       *         12        13        20        602       *         *         0          //Pendant of Wind
13,027    0       1       *         12        13        20        602       *         *         0          //Pendant of Water
13,028    0       1       *         12        13        20        602       *         *         0          //Pendant of Ability
13,009    0       1       *         12        13        20        602       *         *         0          //Ring of Poison
13,021    0       1       *         12        13        20        602       *         *         0          //Ring of Fire
13,008    0       1       *         12        13        20        602       *         *         0          //Ring of Ice
13,022    0       1       *         12        13        20        602       *         *         0          //Ring of Earth
13,023    0       1       *         12        13        20        602       *         *         0          //Ring of Wind
13,024    0       1       *         12        13        20        602       *         *         0          //Ring of Magic
7182      *       0       11        *         *         *         *         *         *         0          //Jewel of Soul
7184      *       0       11        *         *         *         *         *         *         0          //Jewel of Life
14,13     *       0       11        *         *         *         *         *         *         0          //Jewel of Bless
12,15     *       0       11        *         *         *         *         *         *         0          //Jewel of chaos
7190      *       0       11        *         *         *         *         *         *         0          //Jewel of Creation
7199      *       0       11        *         *         *         *         *         *         0          //Guardian Jewel
7210      *       0       11        *         *         *         *         *         *         0          //Jewel of Harmony
14,019    0       0       33        *         *         *         *         *         *         0          //Devil's Invitation [Level: +3~5]
13,018    0       0       35        *         *         *         *         *         *         0          //Invisibility Cloak [Level: +4~6]
14,028    0       0       33        *         *         *         *         *         *         0          //Lost Map [Level: +1~3]
end

13
//Index   Level   Grade   Option0   Option1   Option2   Option3   Option4   Option5   Option6   Duration   Comment
//Set kanaz RM
3703      0       1       *         *         13        20        602       *         *         0         	//
4215      0       1       *         *         13        20        602       *         *         0         	//
4727      0       1       *         *         13        20        602       *         *         0         	//
5239      0       1       *         *         13        20        602       *         *         0         	//
5751      0       1       *         *         13        20        602       *         *         0         	//
1053      0       1       *         12        13        20        602       *         *         0           //El hazard mace

13,013    0       1       *         12        13        20        602       *         *         0          //Pendant of Fire
13,012    0       1       *         12        13        20        602       *         *         0          //Pendant of Lighting
13,025    0       1       *         12        13        20        602       *         *         0          //Pendant of Ice
13,026    0       1       *         12        13        20        602       *         *         0          //Pendant of Wind
13,027    0       1       *         12        13        20        602       *         *         0          //Pendant of Water
13,028    0       1       *         12        13        20        602       *         *         0          //Pendant of Ability
13,009    0       1       *         12        13        20        602       *         *         0          //Ring of Poison
13,021    0       1       *         12        13        20        602       *         *         0          //Ring of Fire
13,008    0       1       *         12        13        20        602       *         *         0          //Ring of Ice
13,022    0       1       *         12        13        20        602       *         *         0          //Ring of Earth
13,023    0       1       *         12        13        20        602       *         *         0          //Ring of Wind
13,024    0       1       *         12        13        20        602       *         *         0          //Ring of Magic
7182      *       0       11        *         *         *         *         *         *         0          //Jewel of Soul
7184      *       0       11        *         *         *         *         *         *         0          //Jewel of Life
14,13     *       0       11        *         *         *         *         *         *         0          //Jewel of Bless
12,15     *       0       11        *         *         *         *         *         *         0          //Jewel of chaos
7190      *       0       11        *         *         *         *         *         *         0          //Jewel of Creation
7199      *       0       11        *         *         *         *         *         *         0          //Guardian Jewel
7210      *       0       11        *         *         *         *         *         *         0          //Jewel of Harmony
14,019    0       0       33        *         *         *         *         *         *         0          //Devil's Invitation [Level: +3~5]
13,018    0       0       35        *         *         *         *         *         *         0          //Invisibility Cloak [Level: +4~6]
14,028    0       0       33        *         *         *         *         *         *         0          //Lost Map [Level: +1~3]
end

14
//Index   Level   Grade   Option0   Option1   Option2   Option3   Option4   Option5   Option6   Duration   Comment
//Set Nightwing SL
3761      0       1       *         *         13        20        602       *         *         0          	//
4273      0       1       *         *         13        20        602       *         *         0          	//
4785      0       1       *         *         13        20        602       *         *         0          	//
5297      0       1       *         *         13        20        602       *         *         0          	//
5809      0       1       *         *         13        20        602       *         *         0          	//
0068      0       1       *         12        13        20        602       *         *         0           //Short Sword Cookery

13,013    0       1       *         12        13        20        602       *         *         0          //Pendant of Fire
13,012    0       1       *         12        13        20        602       *         *         0          //Pendant of Lighting
13,025    0       1       *         12        13        20        602       *         *         0          //Pendant of Ice
13,026    0       1       *         12        13        20        602       *         *         0          //Pendant of Wind
13,027    0       1       *         12        13        20        602       *         *         0          //Pendant of Water
13,028    0       1       *         12        13        20        602       *         *         0          //Pendant of Ability
13,009    0       1       *         12        13        20        602       *         *         0          //Ring of Poison
13,021    0       1       *         12        13        20        602       *         *         0          //Ring of Fire
13,008    0       1       *         12        13        20        602       *         *         0          //Ring of Ice
13,022    0       1       *         12        13        20        602       *         *         0          //Ring of Earth
13,023    0       1       *         12        13        20        602       *         *         0          //Ring of Wind
13,024    0       1       *         12        13        20        602       *         *         0          //Ring of Magic
7182      *       0       11        *         *         *         *         *         *         0          //Jewel of Soul
7184      *       0       11        *         *         *         *         *         *         0          //Jewel of Life
14,13     *       0       11        *         *         *         *         *         *         0          //Jewel of Bless
12,15     *       0       11        *         *         *         *         *         *         0          //Jewel of chaos
7190      *       0       11        *         *         *         *         *         *         0          //Jewel of Creation
7199      *       0       11        *         *         *         *         *         *         0          //Guardian Jewel
7210      *       0       11        *         *         *         *         *         *         0          //Jewel of Harmony
14,019    0       0       33        *         *         *         *         *         *         0          //Devil's Invitation [Level: +3~5]
13,018    0       0       35        *         *         *         *         *         *         0          //Invisibility Cloak [Level: +4~6]
14,028    0       0       33        *         *         *         *         *         *         0          //Lost Map [Level: +1~3]
end

15
//Index   Level   Grade   Option0   Option1   Option2   Option3   Option4   Option5   Option6   Duration   Comment
//Gun Frere
7,209     0       1       *         *         13        20        602       *         *         0          	//
8,209     0       1       *         *         13        20        602       *         *         0          	//
9,209     0       1       *         *         13        20        602       *         *         0          	//
10,20     0       1       *         *         13        20        602       *         *         0          	//
11,20     0       1       *         *         13        20        602       *         *         0          	//
4,43      0       1       *         12        13        20        602       *         *         0           //Frere Magic Gun

13,013    0       1       *         12        13        20        602       *         *         0          //Pendant of Fire
13,012    0       1       *         12        13        20        602       *         *         0          //Pendant of Lighting
13,025    0       1       *         12        13        20        602       *         *         0          //Pendant of Ice
13,026    0       1       *         12        13        20        602       *         *         0          //Pendant of Wind
13,027    0       1       *         12        13        20        602       *         *         0          //Pendant of Water
13,028    0       1       *         12        13        20        602       *         *         0          //Pendant of Ability
13,009    0       1       *         12        13        20        602       *         *         0          //Ring of Poison
13,021    0       1       *         12        13        20        602       *         *         0          //Ring of Fire
13,008    0       1       *         12        13        20        602       *         *         0          //Ring of Ice
13,022    0       1       *         12        13        20        602       *         *         0          //Ring of Earth
13,023    0       1       *         12        13        20        602       *         *         0          //Ring of Wind
13,024    0       1       *         12        13        20        602       *         *         0          //Ring of Magic
7182      *       0       11        *         *         *         *         *         *         0          //Jewel of Soul
7184      *       0       11        *         *         *         *         *         *         0          //Jewel of Life
14,13     *       0       11        *         *         *         *         *         *         0          //Jewel of Bless
12,15     *       0       11        *         *         *         *         *         *         0          //Jewel of chaos
7190      *       0       11        *         *         *         *         *         *         0          //Jewel of Creation
7199      *       0       11        *         *         *         *         *         *         0          //Guardian Jewel
7210      *       0       11        *         *         *         *         *         *         0          //Jewel of Harmony
14,019    0       0       33        *         *         *         *         *         *         0          //Devil's Invitation [Level: +3~5]
13,018    0       0       35        *         *         *         *         *         *         0          //Invisibility Cloak [Level: +4~6]
14,028    0       0       33        *         *         *         *         *         *         0          //Lost Map [Level: +1~3]
end

16
//Errtel Earth
12,231    0       3       *         *         *         *         *         *         *         0          //Errtel of Blessing
12,251    0       3       *         *         *         *         *         *         *         0          //Errtel of Divinity

end