3
//Index   DropRate
0         10000
1         10000
end

4
//Index   Section   SectionRate   MoneyAmount   OptionValue   DW   DK   FE   MG   DL   SU   RF   GL   RW   SL   GC
0         5         10000         100           0             1    1    1    1    1    1    1    1    1    1    1
1         6          4000         100           0             1    1    1    1    1    1	1    1    1    1    1
1         7          3000         100           0             1    1    1    1    1    1	1    1    1    1    1
1         8          3000         100           0             1    1    1    1    1    1	1    1    1    1    1
end

5
//Index   Level   Grade   Option0   Option1   Option2   Option3   Option4   Option5   Option6   Duration Comment 
14,505    0       0       *         *         *         *         *         *         *         0         //Ruud Box (1000)
end
 
6
//Index   Level   Grade   Option0   Option1   Option2   Option3   Option4   Option5   Option6   Duration   Comment
6693      0       0       -1        -1        -1        -1        -1        -1        -1        432000     //Horn of Fenrir Traditional Red
end

7
//Index   Level   Grade   Option0   Option1   Option2   Option3   Option4   Option5   Option6   Duration   Comment
6693      0       2       -1        -1        -1        -1        -1        -1        -1        432000        //Horn of Fenrir Protect Blue
end

8
//Index   Level   Grade   Option0   Option1   Option2   Option3   Option4   Option5   Option6   Duration   Comment
6693      0       1       -1        -1        -1        -1        -1        -1        -1        432000   //Horn of Fenrir Destroyer Black
end

//6
////Index   Level   Grade   Option0   Option1   Option2   Option3   Option4   Option5   Option6   Duration   Comment
//7461      0       0       -1        -1        -1        -1        -1        -1         -1         0       //Elemental Capsule(Normal)"
//7461      0       0       -1        -1        -1        -1        -1        -1         -1         0       //Elemental Capsule(Normal)"
//end
//
//7
////Index   Level   Grade   Option0   Option1   Option2   Option3   Option4   Option5   Option6   Duration   Comment
//7461      0       0       -1        -1        -1        -1        -1        -1         -1         0       //Elemental Capsule(Normal)"
//7461      0       0       -1        -1        -1        -1        -1        -1         -1         0       //Elemental Capsule(Normal)"
//7461      0       0       -1        -1        -1        -1        -1        -1         -1         0       //Elemental Capsule(Normal)"
//end
//
//8
////Index   Level   Grade   Option0   Option1   Option2   Option3   Option4   Option5   Option6   Duration   Comment
//7461      0       0       -1        -1        -1        -1        -1        -1         -1         0       //Elemental Capsule(Normal)"
//7461      0       0       -1        -1        -1        -1        -1        -1         -1         0       //Elemental Capsule(Normal)"
//7461      0       0       -1        -1        -1        -1        -1        -1         -1         0       //Elemental Capsule(Normal)"
//7461      0       0       -1        -1        -1        -1        -1        -1         -1         0       //Elemental Capsule(Normal)"
//end